…
 ggplot(data=surveys_complete,mapping=aes(x=species_id,y=weight))+geom_boxplot()+geom_jitter (alpha=0.3,color="red")
 ###Violin plot
> ggplot(data=surveys_complete,mapping=aes(x=species_id,y=weight))+geom_violin()

##Manipulating Scale
 ggplot(data=surveys_complete,mapping=aes(x=species_id,y=weight))+geom_boxplot() +scale_y_log10()
###Class Assignment
class_box<-ggplot(data=surveys_complete, mapping=aes(x=species_id,y=hindfoot_length, color=plot_type))+geom_boxplot()
> class_box
> class_box<-ggplot(data=surveys_complete, mapping=aes(x=species_id,y=hindfoot_length, color=plot_type))+geom_boxplot(color="yellow")

###Finds how often a taxa was found in each given year
surveys_complete %>% 
+ count(year,genus)
# A tibble: 199 × 3
    year genus               n
   <dbl> <chr>           <int>
 1  1977 Chaetodipus         3
 2  1977 Dipodomys         222
 3  1977 Onychomys           3
 4  1977 Perognathus        22
 5  1977 Peromyscus          2
 6  1977 Reithrodontomys     2
 7  1978 Chaetodipus        23
 8  1978 Dipodomys         629
 9  1978 Neotoma            23
10  1978 Onychomys          80
# ℹ 189 more rows
…
